header     : {'slot': 2, 'errors': 21845, 'version': 10, 'mm': 1, 'timestamp': 6148914691236517205L, 'counter': 6148820866244280320, 'crate': 21, 'fibre': 2, 'oos': 1}
coldata[0]
   header     : {'chksmb': 43690, 'chksma': 21845, 'hdr': [1, 2, 3, 4, 5, 6, 7, 8], 'stream1err': 101, 'convertcount': 21845, 'errorregister': 21845, 'stream2err': 1010}
   data
   0 : 0x1f4, 0x1f4, 0x1f4, 0x1f4, 0x1f4, 0x1f4, 0x216, 0x1f4
   1 : 0x22d, 0x1f4, 0x1f8, 0x1fc, 0x1f4, 0x1f4, 0x1f4, 0x1f5
   2 : 0x1f4, 0x1f4, 0x213, 0x1f4, 0x22d, 0x1f6, 0x1f4, 0x1f4
   3 : 0x1f4, 0x1f4, 0x1f4, 0x1f4, 0x1f4, 0x1f4, 0x1f4, 0x1f4
   4 : 0x1f4, 0x23d, 0x1f4, 0x1f4, 0x1f4, 0x1f4, 0x1f4, 0x1f4
   5 : 0x1f4, 0x1f4, 0x213, 0x1f4, 0x1f4, 0x1f4, 0x215, 0x252
   6 : 0x1f4, 0x1f4, 0x1f4, 0x1f4, 0x1f4, 0x1f4, 0x227, 0x1f4
   7 : 0x22c, 0x1f4, 0x1f4, 0x1f4, 0x1f4, 0x259, 0x1f4, 0x1f4
coldata[1]
   header     : {'chksmb': 43690, 'chksma': 21845, 'hdr': [1, 2, 3, 4, 5, 6, 7, 8], 'stream1err': 101, 'convertcount': 21845, 'errorregister': 21845, 'stream2err': 1010}
   data
   0 : 0x1f6, 0x204, 0x1f4, 0x1f4, 0x1f4, 0x1f4, 0x1fb, 0x223
   1 : 0x1f4, 0x1f8, 0x1f4, 0x1f4, 0x1f4, 0x25d, 0x1f4, 0x1f4
   2 : 0x1f4, 0x1f4, 0x1f4, 0x263, 0x1f4, 0x1f8, 0x1f4, 0x1f4
   3 : 0x1f4, 0x208, 0x1f9, 0x1f4, 0x1f4, 0x1f4, 0x1f5, 0x1f7
   4 : 0x1f4, 0x1f4, 0x1f4, 0x1f4, 0x1f4, 0x1f4, 0x1f4, 0x20d
   5 : 0x24a, 0x28e, 0x205, 0x1f5, 0x1f4, 0x228, 0x1f4, 0x1f4
   6 : 0x1f4, 0x20c, 0x1fb, 0x1f4, 0x1f4, 0x1f4, 0x1f4, 0x1f4
   7 : 0x231, 0x20a, 0x1f4, 0x238, 0x1f4, 0x23a, 0x1f4, 0x1f4
coldata[2]
   header     : {'chksmb': 43690, 'chksma': 21845, 'hdr': [1, 2, 3, 4, 5, 6, 7, 8], 'stream1err': 101, 'convertcount': 21845, 'errorregister': 21845, 'stream2err': 1010}
   data
   0 : 0x1f4, 0x216, 0x1f4, 0x1f4, 0x1f4, 0x1f4, 0x1f4, 0x20f
   1 : 0x1f4, 0x1f4, 0x1f4, 0x1f4, 0x1f4, 0x1f4, 0x1f4, 0x252
   2 : 0x1f4, 0x1f4, 0x1f4, 0x1f4, 0x1f4, 0x1f4, 0x1f4, 0x1f4
   3 : 0x215, 0x1f4, 0x1f4, 0x1f4, 0x1f4, 0x254, 0x1f4, 0x1f4
   4 : 0x1f4, 0x1f4, 0x1f4, 0x1f4, 0x1f4, 0x1f4, 0x1f4, 0x1f4
   5 : 0x1f4, 0x2a2, 0x1f4, 0x217, 0x260, 0x1f4, 0x1f4, 0x1f4
   6 : 0x1f4, 0x1f4, 0x1f4, 0x1f4, 0x1f4, 0x1f4, 0x1f4, 0x292
   7 : 0x22d, 0x1f4, 0x1f4, 0x1f4, 0x1f4, 0x1f4, 0x1f4, 0x1f4
coldata[3]
   header     : {'chksmb': 43690, 'chksma': 21845, 'hdr': [1, 2, 3, 4, 5, 6, 7, 8], 'stream1err': 101, 'convertcount': 21845, 'errorregister': 21845, 'stream2err': 1010}
   data
   0 : 0x1f4, 0x1f4, 0x1f4, 0x1f4, 0x1f4, 0x1f4, 0x1f4, 0x1f4
   1 : 0x24a, 0x1f8, 0x1f4, 0x1f4, 0x1f4, 0x1f4, 0x1f4, 0x251
   2 : 0x1f4, 0x266, 0x1f4, 0x1f7, 0x1f9, 0x2cd, 0x219, 0x2e2
   3 : 0x262, 0x1f4, 0x2fc, 0x1f4, 0x1f4, 0x1f4, 0x1f4, 0x1f4
   4 : 0x1f4, 0x1f4, 0x23c, 0x1f4, 0x274, 0x1f4, 0x1f4, 0x1f4
   5 : 0x221, 0x2f9, 0x1f4, 0x2a1, 0x1f4, 0x2be, 0x1f4, 0x1f4
   6 : 0x1f4, 0x1f4, 0x1fc, 0x1f4, 0x1f4, 0x1f4, 0x1f4, 0x1f4
   7 : 0x1f4, 0x1fa, 0x1f4, 0x320, 0x1f5, 0x1f4, 0x1f4, 0x2f4
